{
"spider":"http://tv.laohu.cool/lh241201.jar;md5;28ca0844d36b8179e909e65ec74b3724",


  "lives": [
    {
      "name": "live",
      "type": 0,
      "url": "https://3845.kstore.space/yfjc.txt",
      "playerType": 1,
      "ua": "",
      "epg": "http://epg.112114.xyz/?ch={name}&date={date}",
      "logo": "https://epg.112114.xyz/logo/{name}.png"
    }
  ],
"warningText":"🐱神秘嘉宾提醒您:本接口长期更新 完全免费 请放心使用🐱",
"wallpaper": "https://yun.chuqiuyu.tk",
"logo": "https://3845.kstore.space/秘嘉宾.png",

"sites":[ 
        
  {
      "key": "豆瓣",
      "name": "🔍热门推荐🔍",
      "type": 3,
      "api": "csp_Douban",
      "jar":"https://6317.kstore.vip/BOX/月亮线路/jar/朋友spider(10-7).jar",
      "searchable": 0
    }, 
          
    {
      "key": "热播",
      "name": "🔥热播┃多线",
      "type": 3,
      "api": "csp_AppTT",
      "playerType": 2,
      "searchable": 1,
      "quickSearch": 1,
      "changeable": 1,
      "jar": "https://git.acwing.com/203BDXC/tvboxt/-/raw/main/CJ.jar;md5;74a1bf23b9d08ad9f3483d1d73105a93",
      "ext": "AO7TcBkd8I/B5wQc4Qma+pU="
    },
  
{"key":"南瓜",
"name":"南瓜┃秒播",
"type":3,
"api":"csp_NanGua",
"searchable":1,
"quickSearch":1,
"playerType":2,
"filterable":1,
"ext":""},
{"key":"天天","name":"👑天天秒播👑","type":3,"api":"csp_YMTTian","searchable":1,"quickSearch":1,
"jar":"https://git.acwing.com/Xymz/ymz/-/raw/main/Xymz.jar",
    "playerType":2,"ext":"http://op.ysdqjs.cn"},
{
      "key": "新农民",
      "name": "👑农民影视👑",
      "type": 3,
      "api": "csp_XBPQ",
      "searchable": 1,
      "quickSearch": 1,
      "filterable": 1,
      "playerType":2,
      "jar":"https://git.acwing.com/Xymz/ymz/-/raw/main/Xymz.jar",
      "ext": {
        "简介": "<span class=\"detail-content\" style=*>&&</span>",
        "导演": "",
        "主演": "主演：&&</p>",
        "影片状态": "状态：&&</p>",
        "搜索url": "/search.php;post;searchword={wd}",
        "线路数组": "<h3&&/h3>",
        "线路标题": "农民专线",
        
        "分类url": "https://m.wwgz.cn/vod-type-id-{cateId}-pg-{catePg}-order--by-{by}-class-{class}-year-{year}-letter--area-{area}-lang-.html;;rak",
        "分类": "短剧$26#国产剧$12#电视剧$2#电影$1#动漫$4#综艺$3"
      }
    }, 
       {
      "key": "saohuo",
      "name": "👑骚火影视👑",
      "type": 3,
      "searchable": 1,
      "changeable": 0,
      "quickSearch": 1,
      "playerType": "2",
      "api": "csp_XBPQ",
      "jar":"https://git.acwing.com/Xymz/ymz/-/raw/main/Xymz.jar",
      "ext": {
        "嗅探词": ".m3u8#.mp4#.m3u8?#freeok.mp4",
        "分类url": "https://saohuo.tv/list/{cateId}-{catePg}.html;;vr1au0",
        "倒序":"1",
        "分类": "动漫$4#电影$1#国产剧$20#电视剧$2#港剧$21#韩剧$22#台剧$26#日剧$24#美剧$23",
        "数组二次截取": "class=\"v_list\">&&</ul>",
        "数组": "\"v_img\"&&/div>",
        "标题": "title=\"&&\"",
        "副标题": "v_note\"&&</div",
        "跳转播放链接": "<iframe*src=\"&&\"",
        "二次跳转播放链接": "https://hhjx.hhplayer.com/api.php;post;url=+var url*\"&&\"+&t=+var t*\"&&\"+&key=+var key*\"&&\"+&act=0+&play=1",
        "三次跳转播放链接": "\"url\"*\"&&\""
      }
    },
 {"key":"文采","name":"V影城⭐自营蓝光②","type": 3,
      "api": "csp_Jpys","jar":"https://fs-im-kefu.7moor-fs1.com/ly/4d2c3f00-7d4c-11e5-af15-41bf63ae4ea0/1725545601667/fan.txt",
      "playerType": 2,
      "searchable": 1,
      "quickSearch": 1,
      "changeable": 1}, 
      
        {
			"key": "4KAV",
			"name": "艾薇┃4K",
			"type": 3,
			"searchable": 1,
			"quickSearch": 1,
			"changeable": 1,
			"playerType": "2",
			"api": "csp_XBPQ",
			"jar": "https://d.kstore.dev/download/3845/VIP/XYQ.jar",
			"ext": {
				"作者": "虚无",
				"站名": "4KAV",
				"请求头": "User-Agent$Mozilla/5.0 (iPhone; CPU iPhone OS 15_2 like Mac OS X) AppleWebKit/605.1.15 (KHTML, like Gecko) Version/14.0 Mobile/15E148 Safari/604.1",
				"编码": "UTF-8",
				"主页url": "https://4k-av.com",
				"首页": "120",
				"起始页": "1",
				"数组": "tags\">&&</a>",
				"标题": "alt=\"&&海报",
				"图片": "src=\"&&\"",
				"副标题": "标签:&&</label>",
				"链接": "href=\"&&\"",
				"影片年代": "年份:&&</a >",
				"影片地区": "片长:&&</label>",
				"影片类型": "标签:&&</div>",
				"状态": "videodetail\">&&</label>",
				"简介": "cnline\">&&</p >",
				"线路数组": "videoinfo\">&&</div>",
				"线路标题": "艾薇",
				"播放二次截取": "infomain\">&&reidnull[替换:href>>rtlist\"><img<span>第1集</span>src#poster.jpg>>\"</li></ul>]",
				"播放数组": "rtlist\">&&</ul>",
				"倒序": "0",
				"播放列表": "<img&&</li>[替换:screenshot.jpg>>空]",
				"播放标题": "<span*>&&</span>",
				"播放链接": "src=\"&&\"",
				"跳转播放链接": "<source src=\"&&\"",
				"搜索请求头": "User-Agent$Mozilla/5.0 (iPhone; CPU iPhone OS 15_2 like Mac OS X) AppleWebKit/605.1.15 (KHTML, like Gecko) Version/14.0 Mobile/15E148 Safari/604.1",
				"搜索url": "/s?q={wd}",
				"搜索模式": "1",
				"搜索标题": "title=\"&&/",
				"搜索图片": "src=\"&&\"",
				"搜索副标题": "标签:&&</label>",
				"搜索链接": "href=\"&&\"",
				"分类url": "/{cateId}/{class}/page-{catePg}.html[https://4k-av.com/{cateId}/{class}];;rcS1",
				"分类": "恐怖&电影&剧集&国剧&韩剧&动作&剧情&冒险&喜剧&战争&犯罪&科幻&动画&纪录片",
				"分类值": "tag/恐怖&movie&tv&tag/国产剧&tag/韩剧&tag/动作&tag/剧情&tag/冒险&tag/喜剧&tag/战争&tag/犯罪&tag/科幻&tag/动画&tag/纪录片"
			}
		},
      {"key":"热门",
"name":"热门┃秒播",
"type":3,
"api":"csp_TTian",
"playerType":1,
"ext":"caHR0cDovL3YucmJvdHYuY24="},
    {"key": "暴风","name": "暴风云","type": 1,"api": "https://bfzyapi.com/api.php/provide/vod/?ac=list","searchable": 1,"quickSearch": 1,"filterable": 1,"playerType": 2,"categories": ["动作片","喜剧片","科幻片","恐怖片","爱情片","剧情片","战争片","纪录片","国产剧","欧美剧","犯罪片","香港剧","韩国剧","台湾剧","日本剧","海外剧","其他片","悬疑片","奇幻片","动画片","国产动漫","日韩动漫","欧美动漫","港台动漫","海外动漫","大陆综艺","港台综艺","日韩综艺","欧美综艺"]},     
    {"key":"雨滴",
    "name":"雨滴┃App",
    "type":3,
    "api":"csp_Xdai",
    "playerType":1,
    "jar":"http://tv.laohu.cool/lh241201.jar;md5;28ca0844d36b8179e909e65ec74b3724","wallpaper":"https://bing.img.run/uhd.php",
    "ext":"jaHR0cDovL2M4dzJvdjd1NXdnMnoxbzhwMjFjLmFsaXl1bmNzLmNsaWNrfGs5bzNwMmM4YjdtM3owbzh8azlvM3AyYzhiN20zejBvOA"},

     {
      "key": "csp_Kuaikan",
      "name": "👑快看影视👑",
      "type": 3,
      "api": "csp_Kuaikan",
      "searchable": 1,
      "quickSearch": 1,
      "jar":"https://git.acwing.com/Xymz/ymz/-/raw/main/Xymz.jar",
      "filterable": 1
    }, 
   
{
      "key": "nmys",
      "name": "农民┃影视",
      "type": 3,
      "api": "csp_Nongm",
      "searchable": 1,
      "quickSearch": 1,
      "filterable": 1,
      "jar": "http://m1839732.cf.caoni.ru/5/meow.php;md5;9A039F481AC34BE086451AEEFBE71A68"
    },
     {
      "key": "csp_南果",
      "name": "🎃南果┃1080P",
      "type": 3,"jar":"https://d.kstore.dev/download/3845/MITO.jar",
      "api": "csp_MITU",
      "ext": "ewogICAgICAgICJ1cmwiOiAiaHR0cDovLzExMS4xODAuMjA2LjEyNzozMzAiLAogICAgICAgICJkYXRhS2V5IjogInZhM2hmNzkzbjNDRmR2RlMiLAogICAgICAgICJkYXRhSXYiOiAidmEzaGY3OTNuM0NGZHZGUyIsCiAgICAgICAgImRldmljZUlkIjogIjIzODEzYjE1YmY3YmQzNTljYjhkMzJmOWQwMjg2MjQ0YyIKICB9"
    },
    {
      "key": "cspMiTuApp",
      "name": "🐰米兔┃1080P",
      "type": 3,"jar":"https://d.kstore.dev/download/3845/MITO.jar",
      "api": "csp_MITU",
      "ext": "ewogICAgICAgICJ1cmwiOiAiaHR0cHM6Ly9reTEwODAudG9wIiwKICAgICAgICAiZGF0YUtleSI6ICJlNTlkNDRiMmVlZjAzYmEyIiwKICAgICAgICAiZGF0YUl2IjogImU1OWQ0NGIyZWVmMDNiYTIiLAogICAgICAgICJkZXZpY2VJZCI6ICIyMzgxM2IxNWJmN2JkMzU5Y2I4ZDMyZjlkMDI4NjI0NGMiCiAgfQ=="
    },
 {
      "key": "酷茶影视",
      "name": "👑酷茶影视👑",
      "type": 3,
      "searchable": 1,
      "changeable": 1,
      "playerType": "2",
      "请求头": "手机",
      "api": "csp_XBPQ",
      "jar":"https://git.acwing.com/Xymz/ymz/-/raw/main/Xymz.jar",
        "搜索url": "/search/index.html?keyword={wd}",
      "ext": {"分类url": "https://www.kcys.top/vod/{catePg}/{cateId}/0/0/0/0/0/0",  
        "嗅探词": ".m3u8#.mp4#.m3u8?#tjdownload.pan", 
      "播放数组":"class=\"play-plays-list&&</ul",
      "线路数组":"class=\"play-btn&&</a",
      "分类": "电视剧$2#电影$1#动漫$3#综艺$4"
      }
    },   
  {
      "key": "csp_视觉",
      "name": "🔭视觉┃手机专用",
      "type": 3,
      "searchable": 1,
      "changeable": 1,
      "quickSearch": 1,
      "jar":"https://d.kstore.dev/download/3845/XMKY.jar",
      "api": "https://drive.almondcloud.cn/f/q3JKT9/shijue.py",
      "playerType": 2,
      "filterable": 1
    },
  {"key":"YMduanju","name":"👑神秘短剧👑","type":3,"api":"csp_YMduanju",
  "jar":"https://git.acwing.com/Xymz/ymz/-/raw/main/Xymz.jar","searchable":1,"quickSearch":0,"filterable":0},
 
        {"key":"csp_Ddys","name":"👑低端影视👑","type":3,"api":"csp_Ddys","searchable":1,"quickSearch":1,
        "jar":"https://git.acwing.com/Xymz/ymz/-/raw/main/Xymz.jar",
        "filterable":1},  
         {
            "key": "csp_速播",
            "name": "👑神秘速播👑",
            "type": 3,
            "api": "csp_XBPQ",
            "searchable": 1,
            "quickSearch": 1,
            "filterable": 0,
            "jar":"https://git.acwing.com/Xymz/ymz/-/raw/main/Xymz.jar",
            "ext":{
  "头部集合": "User-Agent$Mozilla/5.0 (iPad; CPU OS 10_3_1 like Mac OS X) AppleWebKit/603.1.30 (KHTML, like Gecko) Version/10.0 Mobile/14E304 Safari/602.1#authority$heimuer.tv#referer$https://heimuer.tv/",
  "分类": "国产剧&国产动漫&古装短剧&虐恋短剧&逆袭短剧&神豪短剧&重生短剧&甜宠短剧&其他短剧&喜剧片&爱情片&恐怖片&战争片&科幻片&动作片&冒险片&奇幻片&惊悚片&欧美剧&港剧&台剧&韩剧&日剧&泰剧&国产综艺&港台综艺&韩国综艺&日本综艺&欧美综艺&欧美动漫&日本动漫",
  "分类值": "13&60&45&46&47&49&50&53&56&10&23&12&34&25&7&8&11&21&30&14&29&15&16&28&38&39&40&41&42&57&58",
  "分类url": "https://heimuer.tv/api.php/provide/vod/?ac=list&ac=detail&t={cateId}&pg={catePg}",
  "数组二次截取": "list\":[&&]",
  "数组": "{&&}",
  "图片": "vod_pic\"*\"&&\"",
  "标题": "vod_name\"*\"&&\"",
  "副标题": "vod_remarks\"*\"&&\"",
  "链接": "https://heimuer.tv/api.php/provide/vod/?ac=list&ac=detail&ids=+vod_id\":&&,",
  "搜索url": "https://heimuer.tv/api.php/provide/vod/?ac=detail&wd={wd}",
  "搜索模式": "1",
  "搜索二次截取": "list\":[&&]",
  "搜索数组": "{&&}",
  "搜索图片": "vod_pic\"*\"&&\"",
  "搜索标题": "vod_name\"*\"&&\"",
  "搜索副标题": "vod_remarks\"*\"&&\"",
  "搜索链接": "https://heimuer.tv/api.php/provide/vod/?ac=list&ac=detail&ids=+vod_id\":&&,",
  "影片类型": "vod_class\"*\"&&\"",
  "导演": "vod_director\"*\"&&\"",
  "主演": "vod_actor\"*\"&&\"",
  "简介": "vod_content\"*\"&&\"",
  "线路二次截取": "\"list\":[&&]",
  "线路数组": "\"vod_play_from\":&&,",
  "线路标题": "\"&&\"",
  "播放数组": "vod_play_url\":&&,[替换:\">>链表题#$>>题链#\\#>>链表表题]",
  "播放二次截取": "",
  "播放列表": "表&&表",
  "播放标题": "题&&题",
  "播放链接": "链&&链+?sku=OWY3ZDA4ZjVjYzY3YmRhYjM5NTUwYzEyZWRjNjUyZWM1NjQ2ZGRjYTVhMGVkM2Nh&p=1&sign=9a69d1563936ead3677623722660c4d9",
   "播放请求头":"User-Agent$Mozilla/5.0 (Windows NT 10.0; Win64; x64) AppleWebKit/537.36 (KHTML, like Gecko) Chrome/118.0.0.0 Safari/537.36#Referer$https://heimuer.tv/#Cookie$PHPSESSID=t9a0fl2ngh4t175j3995v2669d",
  "嗅探词": ".m3u8#.mp4#video_mp4#feiyunNB.mp4#.mp4#cdn.123pan.cn#huoshanvod.com"
}
},
{
		"key": "360资源",
		"name": "👑卫士资源👑",
		"type": 1,
		"api": "https://360zy.com/api.php/provide/vod",
		"jar":"https://git.acwing.com/Xymz/ymz/-/raw/main/Xymz.jar",
		"playUrl": "",
	    "categories": [
        "爽文短剧",
        "国产剧",
        "国产动漫",
        "动画电影",
        "网络电影",       
        "动作片",
        "喜剧片",
        "灾难片",
        "爱情片",
        "科幻片",
        "恐怖片",
        "剧情片",
        "战争片",
        "港台剧",
        "日韩剧",
        "欧美剧",
        "惊悚片",
        "犯罪片",
        "冒险片",
        "悬疑片",    
        "武侠片",
        "奇幻片",
        "国产综艺",
      ] 
	},  
	{
      "key": "索尼",
      "name": "👑索尼采集👑",
      "type": 1,
      "jar":"https://git.acwing.com/Xymz/ymz/-/raw/main/Xymz.jar",
      "api": "https://suoniapi.com/api.php/provide/vod/from/snm3u8/",
      "searchable": 1,
      "changeable": 1,
        "categories": [
        "爽文短剧",
        "动画片",        
        "国产动漫",
        "国产剧",
        "动作片",
        "喜剧片",
        "爱情片",
        "科幻片",
        "恐怖片",
        "剧情片",
        "战争片",
        "港台剧",
        "日韩剧",
        "欧美剧",
        "惊悚片",
        "犯罪片",
        "冒险片",
        "悬疑片",    
        "武侠片",
        "奇幻片",
         "综艺",
        "其他片"
      ] }, 
      {
      "key": "黑狐",
      "name": "👑黑狐影视👑",
      "type": 3,
      "searchable": 1,
      "quickSearch": 1,
      "changeable": 1,
      "playerType": "2",
      "api": "csp_XBPQ",
      "jar":"https://git.acwing.com/Xymz/ymz/-/raw/main/Xymz.jar",
      "ext": {
        "站名": "黑狐影院",
        "主页url": "http://fagmn.com",
        "数组": "class=\"stui-vodlist__box\"&&</a",
        "图片": "data-original=\"&&\"",
        "标题": "title=\"&&\"",
        "链接": "href=\"&&\"",
        "嗅探词": ".m3u8#v3.huoshanvod.com#v3-dy-o.zjcdn#sf16-sg.larksuitecdn.com#v.kd1.qq.com#.mp4",
        "过滤词": "/hls/#php",
        "副标题": "<span class=\"pic-text text-right\">&&</span>",
        "搜索url": "http://fagmn.com/search.php;post;searchword={wd}",
        "搜索模式": "1",
        "搜索数组": "<a class=\"v-thumb stui-vodlist__thumb&&</a>",
        "搜索图片": "data-original=\"&&\"",
        "搜索标题": "title=\"&&\"",
        "搜索链接": "href=\"&&\"",
        "搜索副标题": "<span class=\"pic-text text-right\">&&</span>",
        "搜索后缀": "/view/",
        "线路数组": "href=\"#down&&/a>[替换:奇异视频>>黑狐一线#优酷视频>>黑狐二线#搜狐视频>>黑狐三线#咪咕视频>>黑狐四线]",
        "线路标题": ">&&<",
        "播放数组": "class=\"stui-content__playlist clearfix&&</ul>",
        "状态": "地区：&&</p>",
        "导演": "导演：&&</p>",
        "主演": "主演：&&</p>",
        "简介": "简介：&&</div>",
        "播放列表": "<a&&/a>",
        "播放标题": ">&&<",
        "播放链接": "href=\"&&\"",
        "免嗅": "0",
        "分类": "电影$1#电视剧$2#动漫$3#综艺$4",
        "分类url": "http://fagmn.com/list/{cateId}_{catePg}.html?order=time"
      }
    },
  {
        "key": "kan234",
        "name": "234┃影视",
        "type": 3,
        "api": "csp_XBPQ",
        "searchable": 1,
        "quickSearch": 1,
        "filterable": 1,
        "jar":"https://git.acwing.com/Xymz/ymz/-/raw/main/Xymz.jar",
        "ext": {
            "分类url": "https://www.ikan234.com/list/{cateId}-{catePg}.html",
            "分类": "短剧&电影&电视剧&综艺&动漫",
            "分类值": "5&1&2&3&4"
        }
    },       
         {
                "key": "短剧网",
                "name": "短剧网",
                "type": 3,
                "api": "csp_XBPQ",
            "jar":"https://git.acwing.com/Xymz/ymz/-/raw/main/Xymz.jar",
                "ext": {
                "分类": "抖音短剧&电视剧&电影&动漫&综艺&体育&",
	"分类值": "douyinduanju&dianshiju&dianying&dongman&zongyijiemu&tiyusaishi&",
  "分类url": "http://www.rzjy985.com/vodshow/{cateId}--------{catePg}---.html"}
                },  
                
    {
            "key": "🍑遥遥领先🍑_mpyy",
            "name": "美柏🌟影院",
            "type": 3,
            "api": "csp_XBPQ",
            "searchable": 1,
            "quickSearch": 1,
            "filterable": 1,
        "jar":"https://git.acwing.com/Xymz/ymz/-/raw/main/Xymz.jar",
            "ext": {
                "请求头": "手机",
                "主页url": "https://www.mp4br.com",
                "数组": "",
                "标题": "",
                "副标题": "</p ><i>&&</i>",
                "图片": "img src=\"&&\"",
                "简介": "div class=\"tjuqing\">&&</div>",
                "线路数组": "<h2>&&</h2>",
                "线路标题": "神秘嘉宾+&&",
                "播放数组": "class=\"video_list fn-clear\">&&</div>",
                "播放列表": "<a&&</a",
                "播放标题": ">&&</a",
                "播放链接": "href=\"&&\"",
                "嗅探词": "index.m3u8",
                "跳转播放链接": "urlDecode(var player_*url\":\"&&\")",
                "搜索数组": "<li><a class=\"play-img&&</a",
                "搜索图片": "src=\"&&\"",
                "搜索标题": "alt=\"&&\"",
                "搜索链接": "href=\"&&\"",
                "搜索url": "https://www.mp4br.com/sousuo/page/{pg}/wd/{wd}.html",
                "分类数组": "<li&&</li>",
                "分类标题": ">&&</a",
                "分类ID": "href=\"/dy/hd&&.html\"",
                "分类url": "https://www.mp4br.com/gaojisousuo/{cateId}-{area}-{by}-{class}-----{catePg}---{year}.html"
            }
        },
        {
                "key": "神马影院",
                "name": "神马短剧",
                "type": 3,
                "api": "csp_XBPQ",
            "jar":"https://git.acwing.com/Xymz/ymz/-/raw/main/Xymz.jar",
                "ext": {
                "分类": "短剧&电视剧&电影&动漫&综艺&动画片&影视解说&体育赛事&",
	            "分类值": "duanj&duansj&diany&dongm&zongy&donghp&dianyjs&tiyss&",
                "分类url": "https://syxwldj.com/show/{cateId}--------{catePg}---.html"}
                 },
       
{
                "key": "77短剧",
                "name": "77短剧",
                "type": 3,
                "api": "csp_XBPQ",
            "jar":"https://git.acwing.com/Xymz/ymz/-/raw/main/Xymz.jar",
                "ext": {
                "分类": "短剧&国产剧&电影&综艺&动漫&",
	"分类值": "33&13&1&3&4&",
  "分类url": "https://www.sheyit.com/type/{cateId}-{catePg}.html"}
                },
{"key":"csp_xml_量子资源","name":"👑量子采集👑","type":1,"playerType":2,
"jar":"https://git.acwing.com/Xymz/ymz/-/raw/main/Xymz.jar","api":"http://cj.lziapi.com/api.php/provide/vod/","playUrl":"","searchable":1,"quickSearch":1, "categories": ["短剧",
"国产动漫", "国产剧", "动作片", "喜剧片", "爱情片", "动画片", "冒险片", "武侠片", "科幻片", "战争片", "日韩剧", "港台剧", "欧美剧", "泰国剧", "海外剧", "日韩动漫", "欧美动漫", "国内综艺", "海外综艺", "恐怖片","灾难片", "悬疑片", "纪录片", "惊悚片", "奇幻片", "剧情片"]    },
 {"key":"非凡","name":"👑非凡采集👑",
 "jar":"https://git.acwing.com/Xymz/ymz/-/raw/main/Xymz.jar","type":"1","playerType":2,"api":"http://cj.ffzyapi.com/api.php/provide/vod/?ac=list","searchable":"1","changeable":"0","categories":["短剧","国产动漫","日韩动漫","国产剧","韩国剧","日本剧","电影片","连续剧","综艺片","动漫片","动作片","喜剧片","爱情片","科幻片","恐怖片","剧情片","战争片","香港剧","欧美剧","记录片","台湾剧","海外剧","泰国剧","大陆综艺","港台综艺","日韩综艺","欧美综艺","欧美动漫","港台动漫","海外动漫"]},
    {
        "key": "HG4k",
        "name": "👑HG4K👑",
        "type": 3,"playerType":2,
        "api": "https://codeberg.org/Xym/ymz/raw/branch/main/lib/AppYsV2.js",
        "ext": {
          "host": "https://cs.hgyx.vip/api2/api.php/app/",
          "*": [
            "http://1.94.221.189:88/algorithm.php?url=",
             "http://154.9.253.211:777/api/?key=tizaOMgxmM5q9aEh6Y&url=",
            "http://yunhai.qijiyun.vip/home/api?type=ys&uid=177259&key=dijnouxKNOQSTUWXY5&url="
      ],
          "header": {
          "User-Agent": "okhttp/3.12.11"
        }
        }       
      },
       {
        "key": "ppx4k",
        "name": "👑皮皮虾4K👑",
        "type": 3,"playerType":2,
        "api": "https://codeberg.org/Xym/ymz/raw/branch/main/lib/AppYsV2.js",
        "ext": {
          "host": "http://38.55.250.149:1314/api.php/app/",
          "*": [
            "http://1.94.221.189:88/algorithm.php?url="
      ],
          "header": {
          "User-Agent": "okhttp/3.12.11"
        }
        }       
      },   
  {
      "key": "rzys",
      "name": "忍者┃影视",
      "type": 3,
      "api": "csp_AppRZ",
      "searchable": 1,
      "quickSearch": 1,
      "filterable": 1,
      "playerType": 2,
      "ext": "http://rzys.xyz/",
      "jar": "http://m1839732.cf.caoni.ru/5/meow.php;md5;9A039F481AC34BE086451AEEFBE71A68"
    },
     
  
  
{"key":"天天","name":"V影城|天天资源","type":3,"api":"csp_TTian",
      "jar":"http://tv.laohu.cool/lh241114.jar",
      "playerType":1,"ext":"baHR0cDovL29wLnlzZHFqcy5jbg=="},

{"key":"热门","name":"V影城|热门资源","type":3,"api":"csp_TTian",
"jar":"http://tv.laohu.cool/lh241114.jar",
"playerType":1,"ext":"caHR0cDovL3YucmJvdHYuY24="},

  
{"key":"雷电","name":"V影城|雷电4K","type":3,"api":"csp_Slys",
"jar":"http://tv.laohu.cool/lh241114.jar",
"playerType":1,"ext":"caHR0cDovLzEyMC4yMjQuNy45MDo4MDg="},
       { "key": "猎狼影视",
       "name": "猎狼影视",
       "type": 3,
       "api": "csp_XBPQ", 
       "jar":"https://git.acwing.com/Xymz/ymz/-/raw/main/Xymz.jar",
       "ext": {
       	"分类url":"http://ys2.llangys.top/index.php/vod/type/id/{cateId}/page/{catePg}.html",
       "分类":"短剧&电视剧&电影&动漫&综艺",
       "分类值":"36&38&1&3&2"
         }
        },

       {
      "key": "New6v",
      "name": "V影城|4K偏慢",
      "type": 3,
      "api": "csp_New6v",
      "jar":"https://6317.kstore.vip/BOX/月亮线路/jar/朋友spider(10-7).jar",
       "playerType": 1,
      "searchable": 1,
      "quickSearch": 1,
      "filterable": 1,
      "ext": "https://www.xb6v.com"
    }, 
   


  {     
   "key": "csp_JPYY",
      "name": "💕追剧┃自由",
      "type": 3,
      "searchable": 1,
      "changeable": 1,
      "api": "csp_Jpyy",
              "jar": "https://fs-im-kefu.7moor-fs1.com/ly/4d2c3f00-7d4c-11e5-af15-41bf63ae4ea0/1729938537491/1026.jar;md5;b3c44a3be68151a9fea6e0b441bdb2fd",
      "playerType": 1,
      "filterable": 1,
      "ext": ""
    },
  { 
      "key": "mmys",
      "name": "萌米┃影视",
      "type": 3,
      "api": "csp_AppTT",
      "searchable": 1,
      "quickSearch": 1,
      "changeable": 1,
      "playerType": 1,
      "timeout": 15,
      "ext": "AO7TcBkd8Iifux0Y8Qze6tVlMg==",
      "jar": "http://m1839732.cf.caoni.ru/6/meow.php;md5;7949BE328984866E5E47D85228DBAC2A"
    },
       
        {
      "key": "zycj_量子",
      "name": "🔥量子┃影视",
      "type": 0,
      "api": "https://cj.lziapi.com/api.php/provide/vod/at/xml/",
             "jar": "https://git.acwing.com/203BDXC/tvboxt/-/raw/main/CJ.jar;md5;74a1bf23b9d08ad9f3483d1d73105a93",
      "playUrl": "",
      "categories": [
        "国产剧",
        "国产动漫",
        "港剧",
        "韩剧",
        "欧美剧",
        "动作片",
        "喜剧片",
        "爱情片",
        "科幻片",
        "恐怖片",
        "剧情片",
        "战争片",
        "记录片",
        "台剧",
        "日剧",
        "海外剧",
        "泰剧",
        "大陆综",
        "艺港台综艺",
        "日韩综艺",
        "欧美综艺",
        "日韩动漫",
        "欧美动漫",
        "港台动漫",
        "海外动漫",
        "电影解说",
        "体育",
        "足球",
        "篮球",
        "网球",
        "斯诺克",
        "预告片",
        "短剧"
      ]
    },


{"key":"追剧",
"name":"追剧┃秒播",
"type":3,
"api":"csp_TTian",
"playerType":1,
"ext":"daHR0cDovL3YubGt1eXMuY24="},

{"key":"狼人",
"name":"狼人┃秒播",
"type":3,
"api":"csp_Xdai",
"playerType":2,
"ext":"caHR0cDovLzExMC40Mi4zLjE5NTo4OTg5fEQ2cTdoamI4N0ZKMDlGNzd8RDZxN2hqYjg3RkowOUY3Nw"},
{"key":"雨滴",
"name":"雨滴┃App",
"type":3,
"api":"csp_Xdai",
"playerType":1,
"ext":"jaHR0cDovL2M4dzJvdjd1NXdnMnoxbzhwMjFjLmFsaXl1bmNzLmNsaWNrfGs5bzNwMmM4YjdtM3owbzh8azlvM3AyYzhiN20zejBvOA"},
{"key":"极品",
"name":"极品┃App",
"type":3,
"api":"csp_Jpys",
"playerType":1,
"ext":"caHR0cHM6Ly93d3cuY2Zrajg2LmNvbQ=="},
{"key":"优质",
"name":"优质┃App",
"type":3,
"api":"csp_Xdai",
"playerType":1,
"ext":"jaHR0cHM6Ly9hcGlhcHBkeXl6dHZ5eWRzcXdkeS42OC5neTo1Njg5fGR5eXp0dmFwaWFwcHl5ZHN8ZHl5enR2YXBpYXBweXlkcw"},
{"key":"凯旋",
"name":"凯旋┃App",
"type":3,
"api":"csp_Xdai",
"playerType":1,
"ext":"caHR0cDovL2t4eXMua2FpeGlubWFuaHVhLnRvcHw1ODliMTkwNmI5NWY3MTljfDU4OWIxOTA2Yjk1ZjcxOWM="},
 
    {
      "key": "csp电影",
      "name": "🎬电影┃1080P",
      "type": 3,"jar":"https://d.kstore.dev/download/3845/MITO.jar",
      "api": "csp_MITU",
      "ext": "ewogICAgICAgICJ1cmwiOiAiaHR0cHM6Ly9hcGlhcHBkeXl6dHZ5eWRzcXdkeS42OC5neTo1Njg5IiwKICAgICAgICAiZGF0YUtleSI6ICJkeXl6dHZhcGlhcHB5eWRzIiwKICAgICAgICAiZGF0YUl2IjogImR5eXp0dmFwaWFwcHl5ZHMiLAogICAgICAgICJkZXZpY2VJZCI6ICIyMzgxM2IxNWJmN2JkMzU5Y2I4ZDMyZjlkMDI4NjI0NGMiCiAgICAgIH0="
    },
    {
      "key": "cszhufan",
      "name": "🍚追饭┃1080P",
      "searchable": 1,
      "quickSearch": 1,
      "type": 3,"jar":"https://d.kstore.dev/download/3845/MITO.jar",
      "api": "csp_MITO",
      "ext": {
        "url": "http://103.88.35.251:8989",
        "dataKey": "aassddwwxxllsx1x",
        "playKey": "bbssqdbbssll25sx",
        "version": "2.1.0"
      }
    },
{"key":"雷电",
"name":"雷电┃4K",
"type":3,
"api":"csp_Slys",
"playerType":1,
"ext":"caHR0cDovLzEyMC4yMjQuNy45MDo4MDg="},
   {
            "key": "py_emby苹果",
            "name": "🌚Emby┃动漫",
            "type": 3,
            "api": "https://d.kstore.dev/download/3845/py_emby.py",
            "searchable": 1,
            "quickSearch": 1,
            "changeable": 1,
            "filterable": 1,
            "ext": {
                "server": "https://media.nijigem.by:443",
                "username": "SMJB001",
                "password": "QQ597244169",
                "thread": 2
            }
        },

      {
    "key":"星芽短剧",
    "name":"V影城❤️短剧",
    "type":3,
   "api": "csp_AppXY",
    "jar":"https://6317.kstore.vip/BOX/月亮线路/jar/朋友spider(10-7).jar",
    "searchable":1,
    "changeable":1},
    
{"key":"AI2",
"name":"AI2┃仅搜索",
"type":3,
"api":"csp_AI",
"searchable":1,
"quickSearch":1,
"filterable":0,
"playerType":2,
"ext":"faHR0cDovLzEyNC4yMjIuMTE2LjUvbWIvYXBpLnBocC9wcm92aWRlL3ZvZC98TW96aWxsYS81LjAgKE1hY2ludG9zaDsgSW50ZWwgTWFjIE9TIFggMTBfMTVfNykgQXBwbGVXZWJLaXQvNTM3LjM2IChLSFRNTCwgbGlrZSBHZWNrbykgQ2hyb21lLzExOS4wLjAuMCBTYWZhcmkvNTM3LjMzfHFpYW9qaQ=="},
{"key":"AI3",
"name":"AI3┃仅搜索",
"type":3,
"api":"csp_AI",
"searchable":1,
"quickSearch":1,
"filterable":0,
"playerType":2,
"ext":"haHR0cDovLzEyNC4yMjIuMTE2LjUvbWIvc3h5cy9hcGkucGhwL3Byb3ZpZGUvdm9kL3xva2h0dHAvNC45LjF8cWlhb2pp"},
{"key":"JianPian",
"name":"荐片『边下边播』",
"type":3,
"api":"csp_JianPian",
"searchable":1,
"quickSearch":1,
"filterable":0,
"playerType":2,
"ext":"jianpian-android/365"},
{"key":"Dygang",
"name":"电影港『边下边播』",
"type":3,
"api":"csp_Dygang"},

{"key":"Lib",
"name":"Lib┃直连",
"type":3,
"api":"csp_Lib",
"searchable":1,
"quickSearch":1,
"filterable":0,
"ext":"faHR0cHM6Ly9saWJ2aW8uYXJ0L3N0YXRpYy9qcy9wbGF5ZXJjb25maWcuanM="},

{"key":"NoSearch_csp_DiDuan",
"name":"低端┃无搜索",
"type":3,
"api":"csp_Ddrk",
"searchable":1,
"playerType":1,
"quickSearch":1,
"filterable":0},

{"key":"快看",
"name":"快看┃直连",
"type":3,
"api":"csp_Kuaikan",
"searchable":1,
"playerType":1,
"quickSearch":1,
"filterable":1},

{"key":"ZXZJ",
"name":"在线┃直连",
"api":"csp_Zxzj",
"type":3,
"filterable":1,
"quickSearch":1,
"searchable":1,
"playerType":2,
"ext":""},
{"key":"csp_CZSPP",
"name":"厂长┃直连",
"type":3,
"api":"csp_Czsapp",
"searchable":1,
"playerType":1,
"quickSearch":1,
"filterable":0,
"ext":"maHR0cHM6Ly9jenp5LnRvcC8="},
{"key":"csp_Auete",
"name":"Auete┃无搜索",
"type":3,
"api":"csp_Auete",
"searchable":1,
"playerType":1,
"quickSearch":1,
"filterable":1},
{"key":"NoSearch_csp_BBB",
"name":"哔哩哔哩",
"type":3,
"api":"csp_Bili",
"searchable":1,
"quickSearch":0,
"filterable":1,
"ext":"naHR0cHM6Ly93d3cucWlhb2ppOC5jb20vdHZib3gvYmlsaS5qc29u"},
 
    {
      "key": "qyys",
      "name": "奇优┃影视",
      "type": 3,
      "api": "csp_Qiyou",
      "searchable": 1,
      "quickSearch": 1,
      "changeable": 1,
      "playerType": 1,
      "jar": "http://m1839732.cf.caoni.ru/7/meow.php;md5;D2F2AD718A007B5733ABB5F91AD23533"
    },
 
          
{
            "key": "ok",
            "name": "OK资源",
            "type": 0,
            "api": "https://okzyapi.com/api.php/provide/vod/from/okm3u8/at/xml",
            "searchable": 1,
            "changeable": 1,
            "playUrl": "https://jiexi.okzyw.info/m3u8/?url=",
            "categories": [
                "国产动漫",
                "国产剧",
                "动作片",
                "喜剧片",
                "爱情片",
                "科幻片",
                "恐怖片",
                "剧情片",
                "战争片",
                "欧美剧",
                "韩剧",
                "日剧",
                "港剧",
                "台剧",
                "泰剧",
                "纪录片",
                "海外剧",
                "大陆综艺",
                "日韩综艺",
                "港台综艺",
                "欧美综艺",
                "日韩动漫",
                "欧美动漫",
                "动画片",
                "港台动漫",
                "海外动漫",
                "演唱会",
                "篮球",
                "足球",
                "预告片",
                "影视解说",
                "爽文短剧",
                "4K电影",
                "有声动漫",
                "女频恋爱",
                "反转爽剧",
                "古装仙侠",
                "年代穿越",
                "脑洞悬疑",
                "现代都市",
                "邵氏电影"
            ]
        },
         {
            "key": "鬼片之家②",
            "name": "👻鬼片┃之家",
            "type": 3,
            "api": "csp_XBPQ",
            "jar": "https://d.kstore.dev/download/3845/xbpq.jar",
            "searchable": 1,
            "quickSearch": 1,
            "filterable": 1,
            "ext": {
                "请求头": "User-Agent$MOBILE_UA",
                "编码": "UTF-8",
                "主页url": "https://www.guipian360.com/",
                "二次截取": "class=\"m-movies clearfix\"&&id=\"page\"",
                "数组": "<article&&</article>",
                "图片": "src=\"&&\"",
                "标题": "title=\"&&\"",
                "副标题": "<span>&&</span>",
                "链接": "href=\"&&\"",
                "播放数组": "class=\"abc\"&&</ul>",
                "播放列表": "<li>&&</li>",
                "播放链接": "href=\"&&\"",
                "播放标题": ">&&</a>",
                "线路二次截取": "<dl>&&</dl>",
                "线路数组": "<li>&&</li>",
                "线路标题": ">&&</a >",
                "跳转播放链接": "var player_*\"url\":\"&&\"",
                "简介": "简介：</span>&&</p >",
                "搜索url": "https://www.guipian360.com/vodsearch/{wd}----------{pg}---.html",
                "分类url": "https://www.guipian360.com/list/{cateId}-{catePg}.html",
                "分类": "鬼片大全$1#恐怖片$3#动漫$4#电视剧$2",
                "类型": "大陆鬼片$6#日韩鬼片$7#林正英鬼片$8#港台鬼片$9#泰国鬼片$10#欧美鬼片$11||空||空||国产剧$12#美剧$13#韩剧$14#日剧$15#泰剧$16#港台剧$20#其他剧$22"
            }
        },
 {"key":"csp_企鹅体育","name":"👑企鹅体育👑","type":3,"api":"csp_XPath","style":{"type":"rect","ratio":1.597},
 "jar":"https://git.acwing.com/Xymz/ymz/-/raw/main/Xymz.jar","searchable":0,"quickSearch":0,"changeable":0,"ext":{
    "author": "",
    "ua":"Mozilla/5.0 (Linux; Android 8.1.0; OPPO R11t Build/OPM1.171019.011; wv) AppleWebKit/537.36 (KHTML, like Gecko) Version/4.0 Chrome/76.0.3809.89 Mobile Safari/537.36 T7/11.19 SP-engine/2.15.0 baiduboxapp/11.19.5.10 (Baidu; P1 8.1.0)",
    "homeUrl": "https://m.live.qq.com/directory/game/Basketball",
    "cateManual": {
        "篮球": "directory/game/Basketball",
        "足球":"directory/game/Football",
        "搏击":"directory/game/Fight",
        "网球排球":"directory/game/Tennis",
        "英文原声":"directory/game/English",
        "台球":"directory/game/Billiards",
        "棒球/橄榄球/冰球":"@directory/game/MLB",
        "NBA":"directory/game/NBA",
        "CBA":"directory/game/CBA",
        "颜值":"directory/game/YZ",
        "棋牌/游戏":"directory/game/Game"},
    "homeVodNode": "//a[contains(@href,'/10')]","homeVodName": "/div/following-sibling::p[1]/text()","homeVodId": "/@href","homeVodIdR": "/(\\S+)","homeVodImg": "//div[contains(@style,'http')]/@style","homeVodImgR": "(http.*?jpg)","homeVodMark": "",   
  "cateUrl": "https://m.live.qq.com/{cateId}",  
  "cateVodNode": "//a[contains(@href,'/10')]", 
  "cateVodName": "/div/following-sibling::p[1]/text()",
  "cateVodId": "/@href", 
  "cateVodIdR": "/(\\S+)", 
  "cateVodImg": "//div[contains(@style,'http')]/@style", 
  "cateVodImgR": "(http.*?jpg)", 
  "cateVodMark": "",
    "dtUrl": "https://m.live.qq.com/{vid}",
    "dtNode": "//body",
    "dtName": "//p[contains(@class,'p-title')]/text()",
    "dtNameR": "(“.*?”)",
    "dtImg": "//div[contains(@class,'share-bar')]/@data-pic",
    "dtImgR": "",
    "dtCate": "",
    "dtCateR": "",
    "dtYear": "",
    "dtYearR": "",
    "dtArea": "",
    "dtAreaR": "",
    "dtDirector": "",
    "dtDirectorR": "",
    "dtActor": "",
    "dtActorR": "",
    "dtDesc": "",
    "dtDescR": "",
    "dtFromNode": "//p[contains(@class,'p-title')]",
    "dtFromName": "/text()",
    "dtFromNameR": "(\\企鹅体育)",
    "dtUrlNode": "//div[contains(@class,'wenzi')]",
    "dtUrlSubNode": "/a",
    "dtUrlId": "/text()",
    "dtUrlIdR": "m.live.qq.com/(\\S+)",
    "dtUrlName": "/text()",
    "dtUrlNameR": "(\\d+)",
    "playUrl": "https://m.live.qq.com/{playUrl}",
    "playUa":"{\"User-Agent\":\"okhttp/3.12.11\"}"
}},
 {
            "key": "啊哈视频DJ",
            "name": "👑啊哈视频DJ👑",
            "type": 3,
            "api": "csp_XBPQ",
            "jar":"https://git.acwing.com/Xymz/ymz/-/raw/main/Xymz.jar",
            "ext": {
                "直接播放": "1",
                 "站名": "啊哈DJ网",
  "直接播放": "1",
  "分类url":"https://m.ahadj.com/music/{cateId}-{catePg}.html;;a",
  "分类":"劲爆舞蹈视频$id-112#车载发烧视频$id-125#音乐派对视频$id-90#中文抒情视频$id-20#国外夜店视频$id-21#高清车展视频$id-58#粤语舞曲视频$id-114#英文抒情视频$id-46#日韩歌曲视频$id-50#串烧舞曲视频$id-62#钢管舞曲视频$id-64#国外舞曲视频$id-65#模特DJ视频$id-161#DJ打碟视频$id-163#中文夜店视频$id-180",
                "起始页": "1",
                "数组二次截取":"shiping_box2\">&&</div>",
                "数组": "class=\"shiping_img&&/a>",
                "标题":"<h2>&&</h2>",
                "图片":"src=\"&&\"",
                "链接":"href=\"&&\"",
                "副标题":""
            }
        },
        {
            "key": "啊哈DJ音乐",
            "name": "👑啊哈DJ音乐👑",
            "type": 3,
            "api": "csp_XBPQ",
            "jar":"https://git.acwing.com/Xymz/ymz/-/raw/main/Xymz.jar",
            "ext": {
                "直接播放": "1",
                 "站名": "啊哈DJ网",
  "直接播放": "1",
  "分类url":"https://m.ahadj.com/music/{cateId}-{catePg}.html;;a",
  "分类":"华语超清MV$id-31#国外超清MV$id-44#车载音乐$id-85#中文DJ单曲$id-22#粤语DJ舞曲$id-29#草原DJ舞曲$id-35#经典粤语歌曲$id-54#中文DJ串烧$id-63#优美纯音乐$id-120#欧美单曲$id-13#国外串烧$id-6#蓝调爵士$id-117#club 舞曲$id-110#说唱歌曲$id-53#印度舞曲$id-47#Vocal House$id-43#Pure House$id-42#Club Dance$id-40#FunkyHouse$id-39#Mash Up$id-38#ElectroHouse$id-37#DutchHouse$id-36#英文歌曲$id-30#Club House$id-41#纯DJ音乐$id-121#Crooklyn$id-140#Dubstep$id-141#Tits Exclu$id-143#Chartbusters$id-144#Bounce EDM$id-146#Beezo BeeHive$id-147#Tech House$id-148#Headliner$id-149#Nothing$id-150#Rock$id-151#Techno$id-152#Transition$id-153#原味越鼓$id-184#Ibiza 舞曲$id-135#BigRoom$id-134#MyMP3Pool$id-133#Trap 舞曲$id-132#BarBangerz$id-131#Club Killers$id-130#House Dance$id-129#HouseFuture$id-128#Deep House$id-127#Deep 舞曲$id-126#Exclusive$id-124#Hip Hop$id-119#雷鬼音乐$id-118#无损中文舞曲$id-16#无损英文舞曲$id-17#无损中文歌曲$id-18#无损英文歌曲$id-19#无损串烧舞曲$id-33#车载3D音乐$id-116#外文3D舞曲$id-92#中文3D舞曲$id-93#8倍音质草原歌$id-137#8倍音质国外曲$id-138#8倍音质歌曲$id-164#中文抖音歌曲$id-168#英文抖音音乐$id-169#并四$id-67#自由步$id-82#广场舞曲$id-81#三步踩$id-80#拉丁$id-79#桑巴$id-78#摇并$id-77#吉特巴$id-76#探戈$id-75#恰恰$id-74#伦巴$id-73#慢三$id-72#中三$id-71#快三$id-70#慢四$id-69#快四$id-68#中四$id-66#华尔兹$id-139#中文的士高$id-166#国外的士高$id-167#DJ伴奏$id-165",
                "起始页": "1",
                "数组二次截取":"yinyue yinyue2 mt20\">&&</div>",
                "数组": "<li&&<dl class=\"clearfix",
                "标题":"<h3>&&</h3>",
                "图片":"src=\"&&\"",
                "链接":"href=\"&&\""
               }
        },
    {
      "key": "yyDJ",
      "name": "👑DJ呦呦音乐网👑",
      "type": 3,
      "api": "csp_XYQHiker",
      "searchable": 1,
      "quickSearch": 1,
      "filterable": 1,
      "jar":"https://git.acwing.com/Xymz/ymz/-/raw/main/Xymz.jar",
      "ext": "https://notabug.org/ymz123/TVBOX/raw/master/TVBOX/DJ呦呦音乐网.json"
    },	
   
{
      "key": "kqMV",
      "name": "👑车载MV👑",
      "type": 3,
      "api": "csp_XBPQ",
      "searchable": 0,
      "quickSearch": 0,
      "filterable": 1,
      "jar":"https://git.acwing.com/Xymz/ymz/-/raw/main/Xymz.jar",
      "ext": {
        "主页url": "https://www.kuqimv.com",
        "直接播放": "1",
        "短视频": "1",
        "分类": "华语高清$1#日韩精选$2#欧美MV$3#高清现场$4#影视MV$5#夜店视频$6#车模视频$7#热舞视频$8#美女写真$9#美女打碟$10",
        "分类url": "https://www.kuqimv.com/play/{cateId}_{catePg}.html;;z",
        "数组": "<li>&&</li>",
        "标题": "title=\"&&\"",
        "副标题": "target=\"play\">&&<",
        "搜索模式": "1",
        "搜索url": "https://www.kuqimv.com/search.php?key={wd}"
      }
    },
 
    {
"key": "csp_XBPQ_6V",
  "name": "神秘嘉宾丨4K②",
  "type": 3,
  "api": "csp_XBPQ",
  "searchable": 1,
  "quickSearch": 1,
  "filterable": 1,
  "ext":"https://gitlab.com/yfjc/JS/-/raw/main/6v.json",
  "jar":"https://gitlab.com/yfjc/JS/-/raw/main/6v.jar"
},
  
    {
      "key": "csp_日后",
      "name": "🌜神秘嘉宾┃影视",
      "type": 3,
      "jar": "https://gitlab.com/yfjc/jinqiao/-/raw/main/candy11.jar",
      "api": "csp_XBPQ",
      "searchable": 1,
      "quickSearch": 1,
      "filterable": 1,
      "ext": "https://gitlab.com/yfjc/jinqiao/-/raw/main/348%E5%BD%B1%E8%A7%86.json"
    }
        

],

 "parses": [
  {
      "name": "聚合",
      "type": 3,
      "url": "Demo"
    },
    {
      "name": "嗅探",
      "type": 3,
      "url": "Web"
    },

{
		"name": "m3u8TV",
		"type": 0,
		"url": "https://jx.m3u8.tv/jiexi/?url=",
		"ext": {
			"flag": ["qq", "腾讯", "qiyi", "爱奇艺", "奇艺", "youku", "优酷", "mgtv", "芒果", "letv", "乐视", "pptv", "PPTV", "sohu", "bilibili", "哔哩哔哩", "哔哩"],"header":{"User-Agent":"okhttp/4.1.0"}
		}   
	},

{
      "name": "V影专用",
      "type": 1,
      "url": "https://api.heyiw.top/api/?key=Xj0iuh2gTh5d31L4ms&url=",
      "ext": {
        "flag": [
            "letu",
            "DJWB",
"DJWX",
"DJWT",
  "qq",
          "腾讯",
          "qiyi",
          "爱奇艺",
          "奇艺",
          "youku",
          "优酷",
          "sohu",
          "搜狐",
          "letv",
          "乐视",
          "mgtv",
          "芒果",
          "tnmb",
          "seven",
          "bilibili",
          "1905"
        ],
        "header": {
          "User-Agent": "okhttp/4.9.1"
        }
      }
    },

{
      "name": "SGY解析",
      "type": 1,
      "url": "http://110.40.25.172:8090/home/api?type=ys&cc=&uid=6131125&key=bdgjnopswCEINUZ145&url=",
      "ext": {
        "flag": [
            "SGYA",
            "SGYB"
        
        ],
        "header": {
          "User-Agent": "okhttp/4.9.1"
        }
      }
    },

{
      "name": "NBY解析",
      "type": 1,
      "url": "http://121.62.61.51:6888/api/?key=qIa629Tu6lH6jSDAPP&url=",
      "ext": {
        "flag": [
          "NBY"
        ],
        "header": {
          "User-Agent": "okhttp/4.9.1"
        }
      }
    },


{
      "name": "管解",
      "type": 1,
      "url": "http://211.101.234.192:4433/api/?key=7hqQbiRr1OjdBVrftY&url=",
      "ext": {
        "flag": [
          "qq",
          "腾讯",
          "qiyi",
          "爱奇艺",
          "奇艺",
          "youku",
          "优酷",
          "sohu",
          "搜狐",
          "letv",
          "乐视",
          "mgtv",
          "芒果",
          "tnmb",
          "seven",
          "bilibili",
          "1905"
        ],
        "header": {
          "User-Agent": "okhttp/4.9.1"
        }
      }
    }
 ],


"ijk":[
{"group":"软解码","options":[
{"category":4,"name":"opensles","value":"0"},
{"category":4,"name":"overlay-format","value":"842225234"},
{"category":4,"name":"framedrop","value":"1"},
{"category":4,"name":"soundtouch","value":"1"},
{"category":4,"name":"start-on-prepared","value":"1"},
{"category":1,"name":"http-detect-range-support","value":"0"},
{"category":2,"name":"skip_loop_filter","value":"48"},
{"category":4,"name":"reconnect","value":"1"},
{"category":4,"name":"enable-accurate-seek","value":"0"},
{"category":4,"name":"mediacodec","value":"0"},
{"category":4,"name":"mediacodec-auto-rotate","value":"0"},
{"category":4,"name":"mediacodec-handle-resolution-change","value":"0"},
{"category":4,"name":"mediacodec-hevc","value":"0"},
{"category":1,"name":"dns_cache_timeout","value":"600000000"}
]},
        {
            "options": [
                {
                    "name": "http-detect-range-support",
                    "category": 1,
                    "value": "0"
                },
                {
                    "name": "fflags",
                    "category": 1,
                    "value": "fastseek"
                },
                {
                    "name": "skip_loop_filter",
                    "category": 2,
                    "value": "0"
                },
                {
                    "name": "packet-buffering",
                    "category": 4,
                    "value": "0"
                },
                {
                    "name": "opensles",
                    "category": 4,
                    "value": "0"
                },
                {
                    "name": "framedrop",
                    "category": 4,
                    "value": "60"
                },
                {
                    "name": "soundtouch",
                    "category": 4,
                    "value": "0"
                },
                {
                    "name": "start-on-prepared",
                    "category": 4,
                    "value": "1"
                },
                {
                    "name": "reconnect",
                    "category": 4,
                    "value": "1"
                },
                {
                    "name": "enable-accurate-seek",
                    "category": 4,
                    "value": "1"
                },
                {
                    "name": "videotoolbox",
                    "category": 4,
                    "value": "1"
                },
                {
                    "name": "mediacodec",
                    "category": 4,
                    "value": "1"
                },
                {
                    "name": "mediacodec-all-videos",
                    "category": 4,
                    "value": "1"
                },
                {
                    "name": "mediacodec-auto-rotate",
                    "category": 4,
                    "value": "1"
                },
                {
                    "name": "mediacodec-handle-resolution-change",
                    "category": 4,
                    "value": "1"
                },
                {
                    "name": "mediacodec-hevc",
                    "category": 4,
                    "value": "1"
                },
                {
                    "name": "max-buffer-size",
                    "category": 4,
                    "value": "15728640"
                }
            ],
            "group": "硬解码"
        }
    ],

  "doh": [
        {
            "name": "Google", 
            "url": "https://dns.google/dns-query", 
            "ips": [
                "8.8.4.4", 
                "8.8.8.8"
            ]
        }, 
        {
            "name": "Cloudflare", 
            "url": "https://cloudflare-dns.com/dns-query", 
            "ips": [
                "1.1.1.1", 
                "1.0.0.1", 
                "2606:4700:4700::1111", 
                "2606:4700:4700::1001"
            ]
        }, 
        {
            "name": "AdGuard", 
            "url": "https://dns.adguard.com/dns-query", 
            "ips": [
                "94.140.14.140", 
                "94.140.14.141"
            ]
        }, 
        {
            "name": "DNSWatch", 
            "url": "https://resolver2.dns.watch/dns-query", 
            "ips": [
                "84.200.69.80", 
                "84.200.70.40"
            ]
        }, 
        {
            "name": "Quad9", 
            "url": "https://dns.quad9.net/dns-quer", 
            "ips": [
                "9.9.9.9", 
                "149.112.112.112"
            ]
        }
    ], 
  "rules":
	[{
				"name": "proxy",
				"hosts": [
					"raw.githubusercontent.com",
					"googlevideo.com",
					"cdn.v82u1l.com",
					"cdn.iz8qkg.com",
					"cdn.kin6c1.com",
					"c.biggggg.com",
					"c.olddddd.com",
					"haiwaikan.com",
					"www.histar.tv",
					"youtube.com",
					"uhibo.com",
					".*boku.*",
					".*nivod.*",
					"*.t4tv.hz.cz",
					".*ulivetv.*"
				]
			},
			{"host":"www.djuu.com","rule":["mp4.djuu.com","m4a"]},{"host":"www.sharenice.net","rule":["huoshan.com","/item/video/"],"filter":[]},
			{"host":"www.sharenice.net","rule":["sovv.qianpailive.com","vid="],"filter":[]},
			{"host":"www.sharenice.net","rule":["douyin.com","/play/"]},
			{"host":"m.ysxs8.vip","rule":["ysting.ysxs8.vip:81","xmcdn.com"],"filter":[]},
			{"host":"hdmoli.com","rule":[".m3u8"]},{"host":"https://api.live.bilibili.com","rule":["bilivideo.com","/index.m3u8"],"filter":["data.bilibili.com/log/web","i0.hdslb.com/bfs/live/"]},
			{"host":"www.agemys.cc","rule":["cdn-tos","obj/tos-cn"]},
			{"host":"www.fun4k.com","rule":["https://hd.ijycnd.com/play","index.m3u8"]},
			{"host":"zjmiao.com","rule":["play.videomiao.vip/API.php","time=","key=","path="]},		
			{
				"name": "夜市",
				"hosts": [
					"yeslivetv.com"
				],
				"script": [
					"document.getElementsByClassName('vjs-big-play-button')[0].click()"
				]
			},
			{
				"name": "毛驢",
				"hosts": [
					"www.maolvys.com"
				],
				"script": [
					"document.getElementsByClassName('swal-button swal-button--confirm')[0].click()"
				]
			},
	{"name":"量子广告","hosts":["vip.lz","hd.lz",".cdnlz"],"regex":["#EXT-X-DISCONTINUITY\\r*\\n*#EXTINF:6\\.666667,[\\s\\S]*?#EXT-X-DISCONTINUITY","#EXTINF.*?\\s+.*?1o.*?\\.ts\\s+"]},
	{"name":"非凡广告","hosts":["vip.ffzy","hd.ffzy"],"regex":["20.52","#EXT-X-DISCONTINUITY\\r*\\n*#EXTINF:7\\.400000,[\\s\\S]*?#EXT-X-DISCONTINUITY","#EXTINF.*?\\s+.*?1170(20|32).*?\\.ts\\s+","#EXTINF.*?\\s+.*?116977.*?\\.ts\\s+"]},
	{"name":"索尼广告","hosts":["suonizy"],"regex":["#EXT-X-DISCONTINUITY\\r*\\n*#EXTINF:1\\.000000,[\\s\\S]*?#EXT-X-DISCONTINUITY","#EXTINF.*?\\s+.*?p1ayer.*?\\.ts\\s+","#EXTINF.*?\\s+.*?\\/video\\/original.*?\\.ts\\s+"]},
	{"name":"暴风广告","hosts":["bfzy","bfbfvip"],"regex":["#EXTINF.*?\\s+.*?adjump.*?\\.ts\\s+"]},
	{"name":"星星广告","hosts":["aws.ulivetv.net"],"regex":["#EXT-X-DISCONTINUITY\\r*\\n*#EXTINF:8,[\\s\\S]*?#EXT-X-DISCONTINUITY"]},
	{"name":"快看广告","hosts":["kuaikan"],"regex":["#EXT-X-KEY:METHOD=NONE\\r*\\n*#EXTINF:5,[\\s\\S]*?#EXT-X-DISCONTINUITY","#EXT-X-KEY:METHOD=NONE\\r*\\n*#EXTINF:2\\.4,[\\s\\S]*?#EXT-X-DISCONTINUITY"]},
	{"name":"磁力广告","hosts":["magnet"],"regex":["更多","请访问","example","社 區","x u u","直 播","更 新","社 区","有趣","有 趣","英皇体育","全中文AV在线","澳门皇冠赌场","哥哥快来","美女荷官","裸聊","新片首发","UUE29"]},
	    {
      "name": "czzy",
      "hosts": [
        "10086.cn"
      ],
      "regex": [
        "/storageWeb/servlet/downloadServlet"
      ]
    },
    {
      "name": "bdys",
      "hosts": [
        "bytetos.com",
        "byteimg.com",
        "bytednsdoc.com",
        "pstatp.com"
      ],
      "regex": [
        "/tos-cn"
      ],
      "exclude": [
        ".m3u8"
      ]
    },
    {
      "name": "bdys10",
      "hosts": [
        "bdys10.com"
      ],
      "regex": [
        "/obj/"
      ],
      "exclude": [
        ".m3u8"
      ]
    },
	{"name":"一起看广告","hosts":["yqk88"],"regex":["18.4","15.1666"]},
	{"name":"火山嗅探","hosts":["huoshan.com"],"regex":["item_id="]},
	{"name":"抖音嗅探","hosts":["douyin.com"],"regex":["is_play_url="]},
	{"name":"农民嗅探","hosts":["toutiaovod.com"],"regex":["video/tos/cn"]}],

"ads":["https://lf1-cdn-tos.bytegoofy.com/obj/tos-cn-i-dy/455ccf9e8ae744378118e4bd289288dd","mimg.0c1q0l.cn","www.googletagmanager.com","www.google-analytics.com","wan.51img1.com","mc.usihnbcq.cn","mg.g1mm3d.cn","mscs.svaeuzh.cn","cnzz.hhttm.top","tp.vinuxhome.com","cnzz.mmstat.com","www.baihuillq.com","s23.cnzz.com","z3.cnzz.com","c.cnzz.com","stj.v1vo.top","z12.cnzz.com","img.mosflower.cn","tips.gamevvip.com","ehwe.yhdtns.com","xdn.cqqc3.com","www.jixunkyy.cn","sp.chemacid.cn","hm.baidu.com","s9.cnzz.com","z6.cnzz.com","um.cavuc.com","mav.mavuz.com","wofwk.aoidf3.com","z5.cnzz.com","xc.hubeijieshikj.cn","tj.tianwenhu.com","xg.gars57.cn","k.jinxiuzhilv.com","cdn.bootcss.com","ppl.xunzhuo123.com","xomk.jiangjunmh.top","img.xunzhuo123.com","z1.cnzz.com","s13.cnzz.com","xg.huataisangao.cn","z7.cnzz.com","xg.huataisangao.cn","z2.cnzz.com","s96.cnzz.com","q11.cnzz.com","thy.dacedsfa.cn","xg.whsbpw.cn","s19.cnzz.com","z8.cnzz.com","s4.cnzz.com","f5w.as12df.top","ae01.alicdn.com","www.92424.cn","k.wudejia.com","vivovip.mmszxc.top","qiu.xixiqiu.com","cdnjs.hnfenxun.com","cms.qdwght.com"]

}