CCTV1高清,http://bxny.667789.cn:88/hls/1/index.m3u8
CCTV2高清,http://bxny.667789.cn:88/hls/2/index.m3u8
CCTV3高清,http://bxny.667789.cn:88/hls/3/index.m3u8
CCTV4高清,http://bxny.667789.cn:88/hls/4/index.m3u8
CCTV5高清,http://bxny.667789.cn:88/hls/5/index.m3u8
CCTV5+高清,http://bxny.667789.cn:88/hls/16/index.m3u8
CCTV6高清,http://bxny.667789.cn:88/hls/6/index.m3u8
CCTV7高清,http://bxny.667789.cn:88/hls/7/index.m3u8
CCTV8高清,http://bxny.667789.cn:88/hls/8/index.m3u8
CCTV9高清,http://bxny.667789.cn:88/hls/9/index.m3u8
CCTV10高清,http://bxny.667789.cn:88/hls/10/index.m3u8
CCTV11高清,http://bxny.667789.cn:88/hls/11/index.m3u8
CCTV12高清,http://bxny.667789.cn:88/hls/12/index.m3u8
CCTV13高清,http://bxny.667789.cn:88/hls/13/index.m3u8
CCTV14高清,http://bxny.667789.cn:88/hls/14/index.m3u8
CCTV15高清,http://bxny.667789.cn:88/hls/15/index.m3u8
CCTV16高清,http://bxny.667789.cn:88/hls/100/index.m3u8
CCTV17高清,http://bxny.667789.cn:88/hls/17/index.m3u8
CCTV教育1,http://bxny.667789.cn:88/hls/94/index.m3u8
CCTV教育2,http://bxny.667789.cn:88/hls/95/index.m3u8
CCTV教育4,http://bxny.667789.cn:88/hls/96/index.m3u8
早期教育,http://bxny.667789.cn:88/hls/157/index.m3u8
老故事,http://bxny.667789.cn:88/hls/93/index.m3u8
中学生,http://bxny.667789.cn:88/hls/103/index.m3u8
央视台球,http://bxny.667789.cn:88/hls/158/index.m3u8
风云音乐,http://bxny.667789.cn:88/hls/113/index.m3u8
中国天气,http://bxny.667789.cn:88/hls/691/index.m3u8
文物宝库,http://bxny.667789.cn:88/hls/89/index.m3u8
生态环境,http://bxny.667789.cn:88/hls/112/index.m3u8
世界地理,http://bxny.667789.cn:88/hls/118/index.m3u8
电视指南,http://bxny.667789.cn:88/hls/163/index.m3u8
环球旅游,http://bxny.667789.cn:88/hls/101/index.m3u8
国学频道,http://bxny.667789.cn:88/hls/104/index.m3u8
央广文化精品,http://bxny.667789.cn:88/hls/161/index.m3u8
CGTN1,http://bxny.667789.cn:88/hls/73/index.m3u8
CGTN2,http://bxny.667789.cn:88/hls/74/index.m3u8
CGTN3,http://bxny.667789.cn:88/hls/75/index.m3u8
CGTN4,http://bxny.667789.cn:88/hls/76/index.m3u8
CGTN5,http://bxny.667789.cn:88/hls/77/index.m3u8
CGTN6,http://bxny.667789.cn:88/hls/78/index.m3u8
黑龙江卫视高清,http://bxny.667789.cn:88/hls/18/index.m3u8
黑龙江都市,http://bxny.667789.cn:88/hls/19/index.m3u8
黑龙江新闻,http://bxny.667789.cn:88/hls/20/index.m3u8
黑龙江公共农业,http://bxny.667789.cn:88/hls/21/index.m3u8
黑龙江少儿,http://bxny.667789.cn:88/hls/22/index.m3u8
黑龙江文体,http://bxny.667789.cn:88/hls/23/index.m3u8
黑龙江影视,http://bxny.667789.cn:88/hls/24/index.m3u8
哈尔滨影视台,http://bxny.667789.cn:88/hls/124/index.m3u8
哈尔滨生活台,http://bxny.667789.cn:88/hls/109/index.m3u8
哈尔滨新闻综合,http://bxny.667789.cn:88/hls/25/index.m3u8
新闻综合,http://bxny.667789.cn:88/hls/63/index.m3u8
新闻综合1,http://bxny.667789.cn:88/hls/64/index.m3u8
新闻综合2,http://bxny.667789.cn:88/hls/65/index.m3u8
新闻综合3,http://bxny.667789.cn:88/hls/66/index.m3u8
经济法制,http://bxny.667789.cn:88/hls/126/index.m3u8
吉林卫视,http://bxny.667789.cn:88/hls/26/index.m3u8
延边卫视,http://bxny.667789.cn:88/hls/29/index.m3u8
辽宁卫视,http://bxny.667789.cn:88/hls/30/index.m3u8
北京卫视,http://bxny.667789.cn:88/hls/31/index.m3u8
东方卫视,http://bxny.667789.cn:88/hls/32/index.m3u8
湖南卫视,http://bxny.667789.cn:88/hls/33/index.m3u8
湖北卫视,http://bxny.667789.cn:88/hls/34/index.m3u8
河北卫视,http://bxny.667789.cn:88/hls/35/index.m3u8
安徽卫视,http://bxny.667789.cn:88/hls/36/index.m3u8
大湾区卫视,http://bxny.667789.cn:88/hls/37/index.m3u8
广东卫视,http://bxny.667789.cn:88/hls/38/index.m3u8
天津卫视高清,http://bxny.667789.cn:88/hls/39/index.m3u8
深圳卫视,http://bxny.667789.cn:88/hls/40/index.m3u8
江苏卫视,http://bxny.667789.cn:88/hls/41/index.m3u8
浙江卫视,http://bxny.667789.cn:88/hls/42/index.m3u8
山东卫视,http://bxny.667789.cn:88/hls/43/index.m3u8
四川卫视,http://bxny.667789.cn:88/hls/44/index.m3u8
江西卫视,http://bxny.667789.cn:88/hls/45/index.m3u8
贵州卫视,http://bxny.667789.cn:88/hls/46/index.m3u8
山西卫视,http://bxny.667789.cn:88/hls/47/index.m3u8
广西卫视,http://bxny.667789.cn:88/hls/48/index.m3u8
青海卫视,http://bxny.667789.cn:88/hls/49/index.m3u8
陕西卫视,http://bxny.667789.cn:88/hls/50/index.m3u8
河南卫视,http://bxny.667789.cn:88/hls/52/index.m3u8
重庆卫视,http://bxny.667789.cn:88/hls/53/index.m3u8
甘肃卫视,http://bxny.667789.cn:88/hls/54/index.m3u8
内蒙古卫视,http://bxny.667789.cn:88/hls/55/index.m3u8
新疆卫视,http://bxny.667789.cn:88/hls/56/index.m3u8
兵团卫视,http://bxny.667789.cn:88/hls/57/index.m3u8
西藏卫视,http://bxny.667789.cn:88/hls/58/index.m3u8
云南卫视,http://bxny.667789.cn:88/hls/59/index.m3u8
宁夏卫视,http://bxny.667789.cn:88/hls/60/index.m3u8
东南卫视,http://bxny.667789.cn:88/hls/61/index.m3u8
海南卫视,http://bxny.667789.cn:88/hls/62/index.m3u8
欢笑剧场4K,http://bxny.667789.cn:88/hls/27/index.m3u8
新动漫,http://bxny.667789.cn:88/hls/85/index.m3u8
金鹰卡通,http://bxny.667789.cn:88/hls/67/index.m3u8
BesTV动画,http://bxny.667789.cn:88/hls/68/index.m3u8
优漫卡通,http://bxny.667789.cn:88/hls/69/index.m3u8
嘉佳卡通,http://bxny.667789.cn:88/hls/70/index.m3u8
动漫秀场,http://bxny.667789.cn:88/hls/71/index.m3u8
炫动卡通,http://bxny.667789.cn:88/hls/72/index.m3u8
黑莓动画,http://bxny.667789.cn:88/hls/300/index.m3u8
都市剧场,http://bxny.667789.cn:88/hls/80/index.m3u8
法制天地,http://bxny.667789.cn:88/hls/81/index.m3u8
乐游频道,http://bxny.667789.cn:88/hls/114/index.m3u8
东方财经,http://bxny.667789.cn:88/hls/84/index.m3u8
GTV网络棋牌,http://bxny.667789.cn:88/hls/28/index.m3u8
天元围棋,http://bxny.667789.cn:88/hls/128/index.m3u8
四海钓鱼,http://bxny.667789.cn:88/hls/86/index.m3u8
快乐垂的,http://bxny.667789.cn:88/hls/87/index.m3u8
家庭理财,http://bxny.667789.cn:88/hls/88/index.m3u8
证券服务,http://bxny.667789.cn:88/hls/115/index.m3u8
财富天下,http://bxny.667789.cn:88/hls/99/index.m3u8
山东教育卫视,http://bxny.667789.cn:88/hls/120/index.m3u8
生活时尚,http://bxny.667789.cn:88/hls/91/index.m3u8
美术频道,http://bxny.667789.cn:88/hls/102/index.m3u8
先锋乒羽,http://bxny.667789.cn:88/hls/79/index.m3u8
魅力足球,http://bxny.667789.cn:88/hls/98/index.m3u8
风云足球,http://bxny.667789.cn:88/hls/156/index.m3u8
咪咕精彩体育,http://bxny.667789.cn:88/hls/304/index.m3u8
哒啵赛事,http://bxny.667789.cn:88/hls/301/index.m3u8
金色学堂,http://bxny.667789.cn:88/hls/82/index.m3u8
中华特产,http://bxny.667789.cn:88/hls/107/index.m3u8
车迷频道,http://bxny.667789.cn:88/hls/108/index.m3u8
茶频道,http://bxny.667789.cn:88/hls/110/index.m3u8
优优宝贝,http://bxny.667789.cn:88/hls/127/index.m3u8
武术世界,http://bxny.667789.cn:88/hls/162/index.m3u8
梨园频道,http://bxny.667789.cn:88/hls/105/index.m3u8
齐齐哈尔公共2,http://bxny.667789.cn:88/hls/92/index.m3u8
全纪实,http://bxny.667789.cn:88/hls/90/index.m3u8
游戏风云,http://bxny.667789.cn:88/hls/106/index.m3u8
黑莓电影,http://bxny.667789.cn:88/hls/119/index.m3u8